now /home/testmachine/compiler2016-testcases/compile_error/arrop-1-5100379071-puyouer.mx
Compile Error!
Yes
now /home/testmachine/compiler2016-testcases/compile_error/asiop-1-5100379071-puyouer.mx
Compile Error!
Yes
now /home/testmachine/compiler2016-testcases/compile_error/asiop-2-5100379071-puyouer.mx
Compile Error!
Yes
now /home/testmachine/compiler2016-testcases/compile_error/asiop-3-5120309049-liaochao.mx
Compile Error!
Yes
now /home/testmachine/compiler2016-testcases/compile_error/asiop-4-5120309049-liaochao.mx
Compile Error!
Yes
now /home/testmachine/compiler2016-testcases/compile_error/asiop-5-5100379071-puyouer.mx
Compile Error! 1238654
Yes
now /home/testmachine/compiler2016-testcases/compile_error/asiop-6-5100379071-puyouer.mx
Compile Error!
Yes
now /home/testmachine/compiler2016-testcases/compile_error/asiop-7-5120309049-liaochao.mx
Compile Error!
Yes
now /home/testmachine/compiler2016-testcases/compile_error/biop-1-5100379071-puyouer.mx
Compile Error! 23123789
Yes
now /home/testmachine/compiler2016-testcases/compile_error/bitop-1-5120309049-liaochao.mx
Compile Error!
Yes
now /home/testmachine/compiler2016-testcases/compile_error/boop-1-5120309049-liaochao.mx
Compile Error!
Yes
now /home/testmachine/compiler2016-testcases/compile_error/class-1-5100379071-puyouer.mx
Compile Error! 5354654
Yes
now /home/testmachine/compiler2016-testcases/compile_error/class-2-5120309049-liaochao.mx
Compile Error! 987654222
Yes
now /home/testmachine/compiler2016-testcases/compile_error/ctrflow-1-5100379071-puyouer.mx
Compile Error!
Yes
now /home/testmachine/compiler2016-testcases/compile_error/ctrflow-2-5120309049-liaochao.mx
Compile Error!
Yes
now /home/testmachine/compiler2016-testcases/compile_error/ctrflow-3-5100379071-puyouer.mx
Compile Error!
Yes
now /home/testmachine/compiler2016-testcases/compile_error/ctrflow-4-5120309049-liaochao.mx
Compile Error!
Yes
now /home/testmachine/compiler2016-testcases/compile_error/ctrflow-5-5120309049-liaochao.mx
Compile Error!
Yes
now /home/testmachine/compiler2016-testcases/compile_error/fldop-1-5120309049-liaochao.mx
Compile Error!
Yes
now /home/testmachine/compiler2016-testcases/compile_error/func-1-5100379071-puyouer.mx
Compile Error! 20345
Yes
now /home/testmachine/compiler2016-testcases/compile_error/func-2-5120309049-liaochao.mx
Compile Error! 321234
Yes
now /home/testmachine/compiler2016-testcases/compile_error/func-3-5100379071-puyouer.mx
Compile Error! 23123789
Yes
now /home/testmachine/compiler2016-testcases/compile_error/func-4-5100379071-puyouer.mx
Compile Error! 23123789
Yes
now /home/testmachine/compiler2016-testcases/compile_error/func-5-5100309127-hetianxing.mx
Compile Error! 23123789
Yes
now /home/testmachine/compiler2016-testcases/compile_error/func-6-5130309059-lijiajun.mx
Compile Error!
Yes
now /home/testmachine/compiler2016-testcases/compile_error/func-7-5140309552-wancheng.mx
Compile Error!
Yes
now /home/testmachine/compiler2016-testcases/compile_error/incop-1-5120309049-liaochao.mx
Compile Error!
Yes
now /home/testmachine/compiler2016-testcases/compile_error/relop-1-5120309049-liaochao.mx
Compile Error! 8465123
Yes
now /home/testmachine/compiler2016-testcases/compile_error/relop-2-5120309049-liaochao.mx
Compile Error! 8465123
Yes
now /home/testmachine/compiler2016-testcases/compile_error/scope-1-5140519064-youyurong.mx
Compile Error! 1238654
Yes
now /home/testmachine/compiler2016-testcases/compile_error/scope-2-5140519064-youyurong.mx
Compile Error! 1238654
Yes
now /home/testmachine/compiler2016-testcases/compile_error/var-1-5110379024-wuhang.mx
Compile Error!
Yes
now /home/testmachine/compiler2016-testcases/compile_error/var-2-5100309127-hetianxing.mx
Compile Error!
Yes
now /home/testmachine/compiler2016-testcases/compile_error/var-3-5120309049-liaochao.mx
Compile Error!
Yes
now /home/testmachine/compiler2016-testcases/compile_error/var-4-5140309552-wancheng.mx
Compile Error!
Yes
now /home/testmachine/compiler2016-testcases/passed/basicopt1-5100309127-hetianxing.mx
Yes
now /home/testmachine/compiler2016-testcases/passed/builtin-5140519064-youyurong.mx
Yes
now /home/testmachine/compiler2016-testcases/passed/bulgarian-5110379024-wuhang.mx
Yes
now /home/testmachine/compiler2016-testcases/passed/expr-5110309085-jintianxing.mx
Yes
now /home/testmachine/compiler2016-testcases/passed/hanoi-5100379110-daibo.mx
Yes
now /home/testmachine/compiler2016-testcases/passed/hashmap-5100309127-hetianxing.mx
Yes
now /home/testmachine/compiler2016-testcases/passed/heapsort-5100379110-daibo.mx
Yes
now /home/testmachine/compiler2016-testcases/passed/horse2-5100309153-yanghuan.mx
Yes
now /home/testmachine/compiler2016-testcases/passed/horse3-5100309153-yanghuan.mx
Yes
now /home/testmachine/compiler2016-testcases/passed/horse-5100309153-yanghuan.mx
Yes
now /home/testmachine/compiler2016-testcases/passed/lvalue2-5110379024-wuhang.mx
Yes
now /home/testmachine/compiler2016-testcases/passed/magic-5100309153-yanghuan.mx
Yes
now /home/testmachine/compiler2016-testcases/passed/maxflow-5100379110-daibo.mx
Yes
now /home/testmachine/compiler2016-testcases/passed/prime-5100309153-yanghuan.mx
Yes
now /home/testmachine/compiler2016-testcases/passed/qsort-5100379110-daibo.mx
Yes
now /home/testmachine/compiler2016-testcases/passed/queens-5100379110-daibo.mx
Yes
now /home/testmachine/compiler2016-testcases/passed/spill2-5100379110-daibo.mx
Yes
now /home/testmachine/compiler2016-testcases/passed/superloop-5090379042-jiaxiao.mx
Yes
now /home/testmachine/compiler2016-testcases/passed/tak-5090379042-jiaxiao.mx
Yes
now /home/testmachine/compiler2016-testcases/passed/twinprime-5090379042-jiaxiao.mx
Yes
